[
  {
    "modelName": "Pink glasses",
    "price": 800,
    "passForImage": "../img/pink glasses.jpg",
    "vendorCode": 4641518688465,
    "color": "white"
  },
  {
    "modelName": "Outsider is not a loser",
    "price": 950,
    "passForImage": "../img/isnt loser black.jpg",
    "vendorCode": 4545454218888,
    "color": "black"
  },
  {
    "modelName": "outsider is not a loser",
    "price": 950,
    "passForImage": "../img/isnt loser white.jpg",
    "vendorCode": 4123321447899,
    "color": "white"
  },
  {
    "modelName": "Smiles in love",
    "price": 850,
    "passForImage": "../img/smiles in love.jpg",
    "vendorCode": 7852311456324,
    "color": "white"
  },
  {
    "modelName": "Krasno",
    "price": 900,
    "passForImage": "../img/krasno.jpg",
    "vendorCode": 8452145632789,
    "color": "black"
  },
  {
    "modelName": "Krasno stars",
    "price": 900,
    "passForImage": "../img/krasno stars.jpg",
    "vendorCode": 2446514857862,
    "color": "black"
  },
  {
    "modelName": "Clouds hoodie",
    "price": 1000,
    "passForImage": "../img/H clouds.jpg",
    "vendorCode": 7851243198988,
    "color": "blue"
  },
  {
    "modelName": "T-Shirt clouds",
    "price": 980,
    "passForImage": "../img/T clouds.jpg",
    "vendorCode": 4655646848552,
    "color": "blue"
  },
  {
    "modelName": "rip to smile T-Shirt",
    "price": 800,
    "passForImage": "../img/T rip to smile.jpg",
    "vendorCode": 4656656424989,
    "color": "yellow"
  },
  {
    "modelName": "rip to smile hoodie",
    "price": 1000,
    "passForImage": "../img/rip to smile.jpg",
    "vendorCode": 4641518688465,
    "color": "yellow"
  }
]